\relax 
\select@language{english}
\@writefile{toc}{\select@language{english}}
\@writefile{lof}{\select@language{english}}
\@writefile{lot}{\select@language{english}}
\select@language{english}
\@writefile{toc}{\select@language{english}}
\@writefile{lof}{\select@language{english}}
\@writefile{lot}{\select@language{english}}
\@writefile{toc}{\contentsline {section}{\numberline {1}Introduction}{2}}
\@writefile{toc}{\contentsline {section}{\numberline {2}Description of the Company}{2}}
\@writefile{toc}{\contentsline {subsection}{\numberline {2.1}Company Name}{3}}
\@writefile{toc}{\contentsline {subsection}{\numberline {2.2}Company Location}{3}}
\@writefile{toc}{\contentsline {subsection}{\numberline {2.3}General Description of the Company}{3}}
\@writefile{lof}{\contentsline {figure}{\numberline {1}{\ignorespaces The Organizational Chart of T\IeC {\"U}RKSAT \relax }}{4}}
\providecommand*\caption@xref[2]{\@setref\relax\@undefined{#1}}
\newlabel{fig:cooling}{{1}{4}}
\@writefile{toc}{\contentsline {subsection}{\numberline {2.4}A Brief History of the Company}{5}}
\@writefile{toc}{\contentsline {section}{\numberline {3}Orientation \& Useful Programs}{6}}
\@writefile{toc}{\contentsline {subsection}{\numberline {3.1}Pomodoro Technique \& Pomotodo App}{7}}
\@writefile{toc}{\contentsline {subsection}{\numberline {3.2}Database Structure \& Airtable}{8}}
\@writefile{toc}{\contentsline {subsection}{\numberline {3.3}Wiki Pages \& Confluence Wiki }{9}}
\@writefile{toc}{\contentsline {subsection}{\numberline {3.4}V-Model \& Agile Methodology}{10}}
\@writefile{toc}{\contentsline {subsection}{\numberline {3.5}Version Control with Git \& Bitbucket}{11}}
\@writefile{toc}{\contentsline {subsection}{\numberline {3.6}Microsoft Sharepoint}{12}}
\@writefile{toc}{\contentsline {section}{\numberline {4}Python \& Raspberry Pi}{12}}
\@writefile{toc}{\contentsline {section}{\numberline {5}Solar Tracker System Project }{15}}
\@writefile{toc}{\contentsline {section}{\numberline {6}MATLAB}{15}}
\@writefile{toc}{\contentsline {section}{\numberline {7}Conclusion}{15}}
\@writefile{toc}{\contentsline {section}{\numberline {8}References }{16}}
