\relax 
\select@language{english}
\@writefile{toc}{\select@language{english}}
\@writefile{lof}{\select@language{english}}
\@writefile{lot}{\select@language{english}}
\select@language{english}
\@writefile{toc}{\select@language{english}}
\@writefile{lof}{\select@language{english}}
\@writefile{lot}{\select@language{english}}
\@writefile{toc}{\contentsline {section}{\numberline {1}Introduction}{3}}
\@writefile{toc}{\contentsline {section}{\numberline {2}Description of the Company}{3}}
\@writefile{toc}{\contentsline {subsection}{\numberline {2.1}Company Name}{3}}
\@writefile{toc}{\contentsline {subsection}{\numberline {2.2}Company Location}{4}}
\@writefile{toc}{\contentsline {subsection}{\numberline {2.3}General Description of the Company}{4}}
\@writefile{lot}{\contentsline {table}{\numberline {1}{\ignorespaces Company Percentage\relax }}{4}}
\providecommand*\caption@xref[2]{\@setref\relax\@undefined{#1}}
\newlabel{tab:roles}{{1}{4}}
\@writefile{toc}{\contentsline {subsection}{\numberline {2.4}The Organizational Chart of the Company}{5}}
\@writefile{lof}{\contentsline {figure}{\numberline {1}{\ignorespaces The Organizational Chart of T\IeC {\"U}RKSAT \relax }}{5}}
\newlabel{fig:orgc}{{1}{5}}
\@writefile{toc}{\contentsline {subsection}{\numberline {2.5}A Brief History of the Company}{6}}
\@writefile{toc}{\contentsline {section}{\numberline {3}Orientation \& Useful Programs}{7}}
\@writefile{toc}{\contentsline {subsection}{\numberline {3.1}Pomodoro Technique}{7}}
\@writefile{toc}{\contentsline {subsubsection}{\numberline {3.1.1}Pomotodo App}{8}}
\@writefile{lof}{\contentsline {figure}{\numberline {2}{\ignorespaces  My To Do List in Pomotodo Web App \relax }}{8}}
\newlabel{fig:todo}{{2}{8}}
\@writefile{lof}{\contentsline {figure}{\numberline {3}{\ignorespaces  My Pomodoro History of July 12th \relax }}{9}}
\newlabel{fig:pomo}{{3}{9}}
\@writefile{lof}{\contentsline {figure}{\numberline {4}{\ignorespaces  Some statics about my summer practice \relax }}{9}}
\newlabel{fig:stat}{{4}{9}}
\@writefile{toc}{\contentsline {subsection}{\numberline {3.2}Database Structure}{10}}
\@writefile{toc}{\contentsline {subsubsection}{\numberline {3.2.1}Airtable}{10}}
\@writefile{lof}{\contentsline {figure}{\numberline {5}{\ignorespaces  Apartment Hunting Base \relax }}{11}}
\newlabel{fig:cooling}{{5}{11}}
\@writefile{toc}{\contentsline {subsection}{\numberline {3.3}Wiki Pages}{11}}
\@writefile{toc}{\contentsline {subsubsection}{\numberline {3.3.1}Confluence Wiki}{12}}
\@writefile{lof}{\contentsline {figure}{\numberline {6}{\ignorespaces  Confluence Wiki\relax }}{12}}
\newlabel{fig:wiki1}{{6}{12}}
\@writefile{lof}{\contentsline {figure}{\numberline {7}{\ignorespaces Body \relax }}{13}}
\newlabel{fig:cooling}{{7}{13}}
\@writefile{toc}{\contentsline {subsection}{\numberline {3.4}V-Model \& Agile Methodology}{13}}
\@writefile{toc}{\contentsline {subsubsection}{\numberline {3.4.1}V-Model}{13}}
\@writefile{lof}{\contentsline {figure}{\numberline {8}{\ignorespaces V-Model \relax }}{14}}
\newlabel{fig:cooling}{{8}{14}}
\@writefile{toc}{\contentsline {subsubsection}{\numberline {3.4.2}Agile Methodology (Scrum) }{15}}
\@writefile{toc}{\contentsline {paragraph}{\numberline {3.4.2.1}Roles}{15}}
\@writefile{toc}{\contentsline {subsection}{\numberline {3.5}Version Control with Git}{15}}
\@writefile{toc}{\contentsline {subsubsection}{\numberline {3.5.1}Github}{16}}
\@writefile{toc}{\contentsline {subsubsection}{\numberline {3.5.2}Bitbucket}{16}}
\@writefile{lof}{\contentsline {figure}{\numberline {9}{\ignorespaces  Bitbucket\relax }}{17}}
\newlabel{fig:bitb1}{{9}{17}}
\@writefile{toc}{\contentsline {section}{\numberline {4}Solar Tracker System Project }{17}}
\@writefile{toc}{\contentsline {subsection}{\numberline {4.1}Planning \& Researching}{17}}
\@writefile{lot}{\contentsline {table}{\numberline {2}{\ignorespaces Roles\relax }}{18}}
\newlabel{tab:roles}{{2}{18}}
\@writefile{lof}{\contentsline {figure}{\numberline {10}{\ignorespaces  HR Base in the Airtabel\relax }}{18}}
\newlabel{fig:roles}{{10}{18}}
\@writefile{toc}{\contentsline {subsubsection}{\numberline {4.1.1}System Requirements}{19}}
\@writefile{lof}{\contentsline {figure}{\numberline {11}{\ignorespaces The Interface of Airtable \& System Requirements \relax }}{19}}
\newlabel{fig:asr}{{11}{19}}
\@writefile{toc}{\contentsline {subsubsection}{\numberline {4.1.2}Subsystem Requirements}{19}}
\@writefile{lof}{\contentsline {figure}{\numberline {12}{\ignorespaces Body \relax }}{20}}
\newlabel{fig:ssr}{{12}{20}}
\@writefile{toc}{\contentsline {subsubsection}{\numberline {4.1.3}Component Requirements}{20}}
\@writefile{lof}{\contentsline {figure}{\numberline {13}{\ignorespaces Body \relax }}{20}}
\newlabel{fig:cr}{{13}{20}}
\@writefile{toc}{\contentsline {subsubsection}{\numberline {4.1.4}Components}{20}}
\@writefile{lof}{\contentsline {figure}{\numberline {14}{\ignorespaces  The components used in the project in the Airtable\relax }}{21}}
\newlabel{fig:comps}{{14}{21}}
\@writefile{toc}{\contentsline {subsection}{\numberline {4.2}Training}{21}}
\@writefile{toc}{\contentsline {subsubsection}{\numberline {4.2.1}Training on Python}{21}}
\@writefile{toc}{\contentsline {paragraph}{\numberline {4.2.1.1}Basics }{21}}
\@writefile{toc}{\contentsline {paragraph}{\numberline {4.2.1.2}Using Conditions}{23}}
\@writefile{toc}{\contentsline {paragraph}{\numberline {4.2.1.3}Using Loops}{23}}
\@writefile{toc}{\contentsline {paragraph}{\numberline {4.2.1.4}Defining Functions}{23}}
\@writefile{toc}{\contentsline {paragraph}{\numberline {4.2.1.5}Defining Classes}{24}}
\@writefile{toc}{\contentsline {subsection}{\numberline {4.3}Working on the Project}{25}}
\@writefile{lof}{\contentsline {figure}{\numberline {15}{\ignorespaces The Interface of Bitbucket \& My Commit History \relax }}{25}}
\newlabel{fig:bbt}{{15}{25}}
\@writefile{toc}{\contentsline {subsubsection}{\numberline {4.3.1}Working on Raspberry Pi}{25}}
\@writefile{toc}{\contentsline {paragraph}{\numberline {4.3.1.1}Training on LEDs}{25}}
\@writefile{toc}{\contentsline {paragraph}{\numberline {4.3.1.2}Training on LDRs}{26}}
\@writefile{toc}{\contentsline {paragraph}{\numberline {4.3.1.3}Training on Servo Motors}{26}}
\@writefile{toc}{\contentsline {subsubsection}{\numberline {4.3.2}Raspberry Pi Final Code}{27}}
\@writefile{toc}{\contentsline {subsubsection}{\numberline {4.3.3}Working on Arduino}{28}}
\@writefile{toc}{\contentsline {paragraph}{\numberline {4.3.3.1}Training on LEDs \& Pins}{28}}
\@writefile{toc}{\contentsline {paragraph}{\numberline {4.3.3.2}Training on Servo Motors}{28}}
\@writefile{toc}{\contentsline {subsubsection}{\numberline {4.3.4}Final Arduino Code}{29}}
\@writefile{toc}{\contentsline {subsection}{\numberline {4.4}Implementation}{31}}
\@writefile{toc}{\contentsline {subsubsection}{\numberline {4.4.1}PCB Drawing}{31}}
\@writefile{lof}{\contentsline {figure}{\numberline {16}{\ignorespaces  PCB \relax }}{31}}
\newlabel{fig:pcb}{{16}{31}}
\@writefile{toc}{\contentsline {subsubsection}{\numberline {4.4.2}3D Drawings}{32}}
\@writefile{toc}{\contentsline {subsubsection}{\numberline {4.4.3}Construction of the Body}{32}}
\@writefile{toc}{\contentsline {paragraph}{\numberline {4.4.3.1}Top Layer}{32}}
\@writefile{lof}{\contentsline {figure}{\numberline {17}{\ignorespaces Top Layer \relax }}{32}}
\newlabel{fig:top4}{{17}{32}}
\@writefile{toc}{\contentsline {paragraph}{\numberline {4.4.3.2}Main Body}{33}}
\@writefile{lof}{\contentsline {figure}{\numberline {18}{\ignorespaces Body \relax }}{33}}
\newlabel{fig:body}{{18}{33}}
\@writefile{toc}{\contentsline {paragraph}{\numberline {4.4.3.3}Solar Panel}{33}}
\@writefile{toc}{\contentsline {paragraph}{\numberline {4.4.3.4}Final Body}{34}}
\@writefile{lof}{\contentsline {figure}{\numberline {19}{\ignorespaces Final Body \relax }}{34}}
\newlabel{fig:finbod}{{19}{34}}
\@writefile{toc}{\contentsline {subsection}{\numberline {4.5}Tests}{34}}
\@writefile{lof}{\contentsline {figure}{\numberline {20}{\ignorespaces Tests \relax }}{35}}
\newlabel{fig:tests}{{20}{35}}
\@writefile{toc}{\contentsline {subsection}{\numberline {4.6}Project Tracking}{35}}
\@writefile{toc}{\contentsline {subsubsection}{\numberline {4.6.1}Kanban}{35}}
\@writefile{lof}{\contentsline {figure}{\numberline {21}{\ignorespaces Body \relax }}{35}}
\newlabel{fig:cooling}{{21}{35}}
\@writefile{toc}{\contentsline {section}{\numberline {5}After Project}{36}}
\@writefile{toc}{\contentsline {subsection}{\numberline {5.1}Training on MATLAB}{36}}
\@writefile{toc}{\contentsline {subsubsection}{\numberline {5.1.1}Coursera}{36}}
\@writefile{toc}{\contentsline {subsubsection}{\numberline {5.1.2}Outline of the Course}{36}}
\@writefile{lof}{\contentsline {figure}{\numberline {22}{\ignorespaces The Syllabus of Matlab Course for First 3 Weeks \relax }}{36}}
\newlabel{fig:mt1}{{22}{36}}
\@writefile{lof}{\contentsline {figure}{\numberline {23}{\ignorespaces The Syllabus of Matlab Course for 4-5-6 Weeks \relax }}{37}}
\newlabel{fig:mt2}{{23}{37}}
\@writefile{lof}{\contentsline {figure}{\numberline {24}{\ignorespaces The Syllabus of Matlab Course for Last 2 Weeks \relax }}{37}}
\newlabel{fig:mt3}{{24}{37}}
\@writefile{toc}{\contentsline {paragraph}{\numberline {5.1.2.1}Simple Sorting Code}{37}}
\@writefile{toc}{\contentsline {subsection}{\numberline {5.2}Training on Microsoft Sharepoint}{39}}
\@writefile{toc}{\contentsline {subsubsection}{\numberline {5.2.1}Microsoft Sharepoint}{39}}
\@writefile{lof}{\contentsline {figure}{\numberline {25}{\ignorespaces Body \relax }}{39}}
\newlabel{sp}{{25}{39}}
\@writefile{lof}{\contentsline {figure}{\numberline {26}{\ignorespaces Body \relax }}{40}}
\newlabel{fig:sp1}{{26}{40}}
\@writefile{lof}{\contentsline {figure}{\numberline {27}{\ignorespaces Body \relax }}{40}}
\newlabel{fig:sp2}{{27}{40}}
\@writefile{lof}{\contentsline {figure}{\numberline {28}{\ignorespaces Body \relax }}{41}}
\newlabel{fig:sp3}{{28}{41}}
\@writefile{toc}{\contentsline {section}{\numberline {6}Conclusion}{41}}
\@writefile{toc}{\contentsline {section}{\numberline {7}References }{42}}
